^C:\USERS\79198\DESKTOP\SKILL\VISUAL STUDIO\HOMEWORK_16\HOMEWORK_16.CPP
C:\USERS\79198\DESKTOP\SKILL\VISUAL STUDIO\HOMEWORK_16\DEBUG\VC142.PDB
C:\USERS\79198\DESKTOP\SKILL\VISUAL STUDIO\HOMEWORK_16\DEBUG\VC142.IDB
C:\USERS\79198\DESKTOP\SKILL\VISUAL STUDIO\HOMEWORK_16\DEBUG\HOMEWORK_16.OBJ
