^C:\USERS\79198\DESKTOP\SKILL\VISUAL STUDIO\HOMEWORK_16\DEBUG\HOMEWORK_16.OBJ
C:\USERS\79198\DESKTOP\SKILL\VISUAL STUDIO\HOMEWORK_16\DEBUG\HOMEWORK_16.EXE
C:\USERS\79198\DESKTOP\SKILL\VISUAL STUDIO\HOMEWORK_16\DEBUG\HOMEWORK_16.ILK
C:\USERS\79198\DESKTOP\SKILL\VISUAL STUDIO\HOMEWORK_16\DEBUG\HOMEWORK_16.PDB
